Homework 6: Linear Models
…
## Parsed with column specification:
## cols(
##   .default = col_double()
## )

## See spec(...) for full column specifications.

## Look for missing data 

tail(birthweight_df,100)

## # A tibble: 100 x 20
##    babysex bhead blength   bwt delwt fincome frace gaweeks malform menarche
##      <dbl> <dbl>   <dbl> <dbl> <dbl>   <dbl> <dbl>   <dbl> <fct>      <dbl>
##  1       1    34      50  2608   158      15     2    40.1 0             12
##  2       2    34      50  3402   157      15     2    37.7 0             11
##  3       2    35      52  3203   150      35     2    49   0             13
##  4       1    36      53  3657   154      45     2    40.6 0             12
##  5       1    33      49  2750   123      25     2    39   0             14
##  6       1    35      52  3005   220       5     2    42.1 0             12
##  7       2    33      48  2693   143      25     2    32.1 0             11
##  8       1    35      51  3572   157      25     2    39.1 0             14
##  9       1    33      51  2948   158      25     2    37.4 0             13
## 10       2    34      49  3147   138      25     2    40.6 0             14
## #  with 90 more rows, and 10 more variables: mheight <dbl>, momage <dbl>,
## #   mrace <fct>, parity <dbl>, pnumlbw <dbl>, pnumsga <dbl>, ppbmi <dbl>,
## #   ppwt <dbl>, smoken <dbl>, wtgain <dbl>

head(birthweight_df,100)

## # A tibble: 100 x 20
##    babysex bhead blength   bwt delwt fincome frace gaweeks malform menarche
##      <dbl> <dbl>   <dbl> <dbl> <dbl>   <dbl> <dbl>   <dbl> <fct>      <dbl>
##  1       2    34      51  3629   177      35     1    39.9 0             13
##  2       1    34      48  3062   156      65     2    25.9 0             14
##  3       2    36      50  3345   148      85     1    39.9 0             12
##  4       1    34      52  3062   157      55     1    40   0             14
##  5       2    34      52  3374   156       5     1    41.6 0             13
##  6       1    33      52  3374   129      55     1    40.7 0             12
##  7       2    33      46  2523   126      96     2    40.3 0             14
##  8       2    33      49  2778   140       5     1    37.4 0             12
##  9       1    36      52  3515   146      85     1    40.3 0             11
## 10       1    33      50  3459   169      75     2    40.7 0             12
## #  with 90 more rows, and 10 more variables: mheight <dbl>, momage <dbl>,
## #   mrace <fct>, parity <dbl>, pnumlbw <dbl>, pnumsga <dbl>, ppbmi <dbl>,
## #   ppwt <dbl>, smoken <dbl>, wtgain <dbl>
…
